…
# Total Cases

<img src="bay_area_files/figure-gfm/cumulative_cases-1.png" width="768" />

<img src="bay_area_files/figure-gfm/daily_new_cases-1.png" width="768" />

<img src="bay_area_files/figure-gfm/county_raw_cases-1.png" width="768" />

<img src="bay_area_files/figure-gfm/county_per_capita-1.png" width="768" />

<img src="bay_area_files/figure-gfm/county_weekly_change-1.png" width="768" />

<img src="bay_area_files/figure-gfm/county_weekly_change_raw-1.png" width="768" />

    ## # A tibble: 109 x 2
    ##    date       daily_new_cases_raw
    ##    <date>                   <dbl>
    ##  1 2020-03-02                  NA
    ##  2 2020-03-03                   0
    ##  3 2020-03-04                   0
    ##  4 2020-03-05                   0
    ##  5 2020-03-06                   0
    ##  6 2020-03-07                   0
    ##  7 2020-03-08                   0
    ##  8 2020-03-09                   8
    ##  9 2020-03-10                   0
    ## 10 2020-03-11                   6
    ## # … with 99 more rows
…
